Label,Question,Answer
Mahasiswa,Mahasiswa yang akan mengajukan penghentian studi sementara harus mendapat izin dari siapa?,Dekan
Mahasiswa,Berapa jumlah mahasiswa yang diterima di Unpad pada tahun akademik 2018/2019?,8.408 mahasiswa
Lain-lain,Dimana Alamat UNPAD?,"Jl. Raya Bandung Sumedang KM.21, Hegarmanah, Jatinangor, Kabupaten Sumedang, Jawa Barat 45363"
Mahasiswa,Siapa saja yang mendapatkan beasiswa NTUST,"Rivaldi Ridhla Julviar, Ragil Ananta, Muhammad Umar Fadhlullah, Irfan Muhammad Wildani, Dwiki Nurkurniawan Satya Putra, Ihsan Kamil"
Kegiatan,berapa target pasien untuk bulan kesehatan gigi nasional FKG,1000 pasien
Kegiatan,kapan unpad mempunyai rektor baru,Belum ada rektor terpilih untuk periode 2019-2023 karena terjadi pengunduran timeline lagi
Kegiatan,Dalam penelitian ilmiah berisi apakah kerangka teori itu?,Prinsip-prinsip teori yang dijadikan dasar untuk menganalisis data
Dosen,siapa guru besar FH unpad,Prof. Susi Dwi Harijanti dan Prof. Atip Latipulhayat
Dosen,siapa Juli Rejito,beliau adalah kepala program studi teknik informatika
Mahasiswa,Harus didukung oleh apakah sikap ilmiah mahasiswa itu?,Didukung oleh data yangobjektif dan/atau argumentasi yang rasional
Kegiatan,siapa yang menyelenggarakan Pelatihan Sertifikasi Asesor Akreditasi Internal,Satuan Penjaminan Mutu (SPM) Unpad
Dosen,Berapa poinkah jika dosen menjadi ketua pembimbing TA D3?,37
Kegiatan,Jurusan Statistika mempelajari tentang?,"pengolahan data dan angka, penyajian data, analisis data, dan pengambilan keputusan data."
Kegiatan,apa itu ootrad,OOTRAD atau Olimpiade Olah Raga Tradisional adalah acara tahunan UNPAD yang termasuk kedalam Dies Natalis Unpad
Lain-lain,Siapakah pencipta Karatagan Unpad?,Mang Koko Koswara
Mahasiswa,Berapa prosenkah pada tahun 2019 kuota jalur undangan?,0.2
Mahasiswa,Siapa Fitri Hidayah Laila Pohan,salah satu wisudawan terbaik gelombang I tahun akademik 2018/2019 dari prodi agribisnis fapet
Dosen,Siapa Prof. Susi Dwi Harijanti,Guru besar FH Unpad
Dosen,siapa kadep ilkom unpad,Kepala Departemen Ilmu Komputer adalah Setiawan Hadi
Dosen,Berapa poinkah jika dosen membuat Prosiding Internasional Terindeks Scopus (Penulis Utama)?,1314
Dosen,Siapa saja yang mengikuti pelatihan train the trainer huawei HCAI-HCNA-R&S,"Dr. Asep Sholahuddin, M.T., Rudi Rosadi, M.Kom., dan Aditya Pradana, M.Eng"
Lain-lain,apa nama himpunan teknik informatika,HIMATIF
Kegiatan,Kapankah Program Unpad nyaah ka Jabar diluncurkan?,Tahun 2013
Lain-lain,Dimana saja Unpad berada,"Dipatiukur, Jatinangor, Pangadaran"
Lain-lain,Apa saja jalur masuk teknik informatika,SNMPTN dan SBMPTN
Dosen,Berapa poinkah nilai dosen yang mengajar di S2/SP1 Kelas internasional?,195
Lain-lain,Jurusan Sastra Sunda ada di fakultas?,MIPA
Mahasiswa,Berapa prosenkah Unpad mencanangkan mahasiswa asing yang menuntut ilmu di Unpad?,0.2
Dosen,Siapakah dekan FEB Unpad 2014-2019?,"Nury Effendi, S.E. M.A. Ph.D"
Kegiatan,Huruf mutu laporan tugas akhir sekurang-kurangnya adalah?,C
Lain-lain,siapa yang menjadi tuan rumah pertemuan abest21 peer review committee 2018,FEB Unpad menjadi tuan rumah diselenggarakannya pertemuan the Alliance on business education and scholarship for tomorrow a 21st century organization (abset21) peer review committee (prc) tahun 2018
Dosen,Berapa poinkah jika dosen menjadi ketua pembimbing TA S2?,122
Mahasiswa,Program apakah yang diberikan kepada para mahasiswa asing di unpad agar bisa berbahasa Indonesia?,Program Bahasa Indonesia bagi Penutur Asing (BIPA)
Kegiatan,Sanksi apa yang diberikan kepada mahasiswa bila melanggar kode etik mahasiswa?,"Sanksi moral atau sanksi etik atau sanksi hukum sesuai dengan peraturan perundang-undangan yang berlaku, atau gabungan diantaranya."
Lain-lain,Fakultas apakah yang merupakan fakultas ke-8 di Unpad?,FIB
Kegiatan,Penelitian mahasiswa wajib bersifat?,Ilmiah
Kegiatan,Berapakah angka kredit maksimal yang diperoleh dosen jika ia membuat penuntun praktikum?,5
Dosen,"Siapa Prof. Rovina Ruslami, PhD",Penerima penghargaan Habibie Award
Mahasiswa,Siapakah Ketua UKM KSR PMI Unpad yang ditetapkan tanggal 29 Januari 2016?,Yolanda Agustianela S
Kegiatan,Kapan Indonesianext dilaksanakan,pada hari jumat 20 oktober 2017
Dosen,Jabatan Dosen berada pada grade berapa?,8
Dosen,siapa dekan fmipa,"Dekan FMIPA Unpad adalah Prof. Dr. Sudradjat, MS"
Dosen,Berapa poinkah jika dosen menguji S1?,27
Lain-lain,Warna merah pada logo Unpad melambangkan,kebersihan (nyala obor dan roda)
Dosen,Siapakah guru besar dari jurusan sastra Indonesia FIB?,"Prof. Dr. dadang Suganda, M.Hum"
Mahasiswa,Berapakah jumlah ideal mahasiswa yang dibimbing oleh seorang dosen wali?,15 mahasiswa
Kegiatan,Berapakah jumlah minimal halaman penulisan tesis?,80 halaman
Mahasiswa,Siapakah Ketua UKM Spektrum Unpad yang ditetapkan tanggal 29 Januari 2016?,Moch. Raihan Gustavian
Kegiatan,Berapa ketukankah penulisan kutipan langsung dimulai dari sebelah kiri?,7-10 ketukan
Lain-lain,Periode tahun berapakah Prof. Dr. Mohtar Kusumaatmadja menjabat rektor Unpsad,1973-1974
Dosen,Berapa poinkah jika dosen menulis Jurnal Internasional Q3 sebagai penulis utama?,1096
Mahasiswa,Siapakah Ketua UKM KPM Unpad yang ditetapkan tanggal 29 Januari 2016?,Fathiya Nur Rahmi
Kegiatan,"Mahasiswa yang suka mendaki gunung, menelusuri gua,memanjat tebing, olah raga arus deras dan susur pantai dapat bergabung di unit kegiatan ?",PMPA Palawa
Lain-lain,Unpad memiliki dua kampus utama yaitu ?,Dipati Ukur dan Jatinangor
Dosen,Berapa poinkah jika dosen menulis Jurnal Internasional Q1 sebagai penulis utama?,2190
Lain-lain,"Akreditasi BAN PT Unpad yang ditetapkan tanggal 16 Januari 2014, Unpad mendapat peringkat?",A (Sangat Baik)
Lain-lain,Tahun berapakah Prof. Dr. Yuyun Wirasasmita menjabat sebagai rektor Unpad,1982-1990
Mahasiswa,Siapakah Ketua UKM Bridge Unpad yang ditetapkan tanggal 29 Januari 2016?,Rully Hadinata
Mahasiswa,Berapa prosenkan pada tahun 2019 kuota untuk jalur seleksi mandiri?,0.3
Kegiatan,Dua bagian yang harus ditulis dalam Bab Penutup yaitu?,Simpulan dan saran
Lain-lain,Apa arti bunga teratai pada logo Unpad,Suluh penerang kehidupan yang membawa cahaya bahagia menuju keluhuran budi
Lain-lain,"siapa yang meluncurkan buku biografi ""empat lini pengabdian: buruh, politik, pendidik, manajer profesional""","Guru besar FIKOM unpad, Prof. Soeganda Priyatna"
Lain-lain,berapa jumlah universitas di Fiji yang melakukan kerjasama penelitian dengan unpad,ada 2
Mahasiswa,Siapakah Ketua UKM UJU Unpad yang ditetapkan tanggal 29 Januari 2016?,Muhammad Zaky Anvari
Kegiatan,Jurusan Farmasi mempelajari tentang?,Ilmu-ilmu entang meramu obat.
Mahasiswa,Siapakah Ketua UKM Pramuka Unpad yang ditetapkan tanggal 29 Januari 2016?,Siti Cholimah
Mahasiswa,Berapakah jumlah mahasiswa Unpad sampai periode 2017/2018?,31.752 orang
Dosen,siapa yang berkontribusi pada pembuatan font aksara sunda,Aditya Pradana
Kegiatan,Siapa sajakah yang harus hadir dalam sidang ujian naskah disertasi?,"Panitia pelaksana ujian naskah disertasi, tiga orang promotor, serta minimal dua orang penguji dan maksimal empat orang penguji"
Mahasiswa,Sanksi apa yang diberikan jika mahasiswa melakukantindak plagiasi?,Skorsing akademik oleh Dekan atau pemutusan studi oleh Rektor
Mahasiswa,Bisakah mahasiswa Unpad pindah ke Perguruan Tinggi lain?,Bisa asal memenuhi persyaratan dan prosedur yang telah ditetapkan
Kegiatan,Kapan Unit Bola Basket Unpad berdiri?,Tahun 1980
Kegiatan,Singkatan dari apakah URU?,Unit Renang Unpad
Mahasiswa,Siapakah Ketua UKM PD Unpad yang ditetapkan tanggal 29 Januari 2016?,Gina Nur habibah
Lain-lain,Warna berdera Fakultas Hukum adalah,Kuning
Dosen,Jabatan akademik dosen yang paling tinggi adalah?,Profesor
Mahasiswa,Dalam satu kamar asrama biasanya dihuni oleh berapa orang mahasiswa?,1-2 orang mahasiswa
Dosen,siapa setiawan hadi,beliau adalah kepala departemen ilmu komputer unpad
Mahasiswa,Siapa saja yang ikut beraprtisipasi dalam Internal Conference on Smart City Innovation,"Rivaldi Ridhla Julviar, Muhammad Umar Fadhlullah, Irfan Muhammad Wildani, Dwiki Nurkurniawan Satya Putra, Ihsan Kamil, Irfan, Sufyan Saori, Fatan Aufa Ahdiy, Fazlur Rahman."
Mahasiswa,Siapa salah satu wisudawan terbaik pada gelombang I tahun akademik 2018/2019,Fitri Hidayah Laila Pohan dari prodi Agribisnis Fapet terpilih menjadi wisudawan terbaik pada gelombang I tahun akademik 2018/2019
Dosen,Berapa poinkah jika dosen menulis monograf lokal?,81
Dosen,Berapa tahun sekalikah penilaian dan penetapan angka kredit terhadap dosen dilakukan?,Paling kurang satu kali dalam setahun
Mahasiswa,Sanksi apakah yang diberikan oleh Dekan kepada mahasiswa ?,Peringatan keras dan tidak boleh ikut kuliah dan ikut ujian untuk beberapa mata kuliah atau seluruhnya
Mahasiswa,Siapa Wisudawan Sarjana Unpad yang lulus S2 di Jepang,Eqi buana
Kegiatan,Dalam penelitian kegiatan apakah yang tidak boleh dilakukan oleh mahasiswa?,Plagiat
Mahasiswa,Siapakah mahasiswa Unpad yang lolos ke National University of Singapore (NUS) pada 8-21 juli 2018?,Iis Diyanah Nurfikria
Lain-lain,Siapakah istri dari WS Rendra yang merupakan alumni Unpad,Ken Zuraeda
Dosen,Berapa poinkah jika dosen membuat Chapter in Book?,584
Mahasiswa,Siapa yang mengikuti kegiatan seeds for the future,Fazlur dan Delia
Dosen,"Siapakah nama Wadek bidang akademik, kemahasiswaan, inovasi dan kerjasama periode rektor tri hanggono?","Dr. Mumuh Muhsin Zakaria, M.Hum."
Lain-lain,Apa arti bunga teratai pada logo Unpad,Pancasila
Dosen,Berapa poinkah jika dosen menguji S3?,122
Lain-lain,Di jalan Dago Atas terdapat fakultas?,Fikom dan Fisip
Lain-lain,Kapan FKG berdiri,Pada 1 September 1959
Lain-lain,Warna berdera Fakultas Hukum adalah,Hijau
Dosen,Siapa yang mengikuti Academic Leadership camp dari departemen ilmu komputer,Dr. Intan Nurma Yulita
Lain-lain,Apa itu unpad korean language center,Fasilitas baru unpad untuk mendukung kegiatan akademik mengenai kebudayaan korea
Dosen,Berapa poinkah nilai dosen yang mengajar di S3?,195
Mahasiswa,"Siapakah masiswa Unpad yang dinobatkan sebagai ""Mojang Pinilih"" dan ""Mojang Kewes"" Kabupaten Pangandaran pada tahun 2016?",Kirana Fadliawati
Dosen,Apakah yang dimaksud dengan dosen tetap?,Dosen yang bekerja penuh waktu yang berstatus sebagai tenaga pendidik tetap pada satuan pendidikan tinggi tertentu dan diberi NIDN
Lain-lain,Apa nama senjata yang ada dalam logo Unpad,Kujang
Kegiatan,Bolehkah mahasiswa yang tidak memiliki kartu mahasiswa yang berlaku untuk semester bersangkuatn menyusun skripsi?,Tidak boleh
Lain-lain,Apa akreditasi Unpad,Akreditasi Unpad saat ini adalah A
Lain-lain,Singkatan dari apakah DRPMI,Direktorat Riset Pengabdian kepada Masyarakat dan Inovasi
Mahasiswa,Siapakah yang memberi sanksi ringan pada mahasiswa?,Kepala Program studi
Kegiatan,Harus memiliki jurnal apakah agar dosen naik jabatan dari lektor kepala ke guru besar?,Jurnal Internasional bereputasi sebagai penulis pertama
Mahasiswa,Apakah yang dimaksud dengan kode etik mahasiswa?,kode etik yang berisi norma yang mengikat mahasiswa secara individual dalam melaksanakan kegiatan akademik dan kemahasiswaan
Dosen,Berapa poinkah jika dosen membuat Artikel Internasional (Penulis Utama)?,66
Dosen,Siapakah dosen itu?,"Dosen adalah pendidik profesional dan ilmuwan dengan tugas utama mentransformasikan, mengembangkan, dan menyebarluaskan ilmu pengetahuan, teknologi, dan seni melalui pendidikan, penelitian, dan pengabdian kepada masyarakat"
Dosen,Berapa poinkah jika dosen membuat Buku Referensi Nasional (Penulis Utama)?,657
Lain-lain,Jurusan Sastra Sunda ada di fakultas?,FIB
Mahasiswa,Berapakah syarat IPK bagi mahasiswa yang tidak mampu yang akan mengajukan beasiswa?,2.5
Mahasiswa,"Berkisar antara berapa jamkah dalam satu SKS kegiatan penelitian, penulisan skripsi dan kegiatan lapangan?",4-5 jam
Dosen,Berapa poinkah jika dosen membimbing Kuliah Lapangan?,16
Dosen,Berapa poinkah jika dosen menjadi anggota pembimbing TA S3?,119
Mahasiswa,Siapakah Ketua UKM USBU Unpad yang ditetapkan tanggal 29 Januari 2016?,Naufal Rasidi
Lain-lain,Apakah gelar sarjana lulusan dari FH?,S.H.
Lain-lain,Program Magister S-2 yang ada di FPsi adalah?,Psikologi dan Psikologi Profesi
Lain-lain,Kapan Jurusan Farmasi berubah menjadi Fakultas Farmasi,17 Oktober 2006
Kegiatan,Kelengkapan akhir dalam penulisan karya ilmiah harus menyertakan?,"Daftar Pustaka, Riwayat Hidup Penulis, Penulisan Indeks, dan Lampiran."
Lain-lain,Kapan FMIPA Unpad berdiri,Pada 1 November 1958
Lain-lain,apa itu himatif,Himatif adalah Himpunan Mahasiswa Teknik Informatika
Mahasiswa,Siapa saja yang mengikuti kompetisi codig,"tim yang terdiri dari Syifa Fauziyah Nurul Islam, Muhammad Ahsan Nurrijal, dan Reynaldi Noer Rizki, yang dibimbing oleh Dr. Intan Nurma Yulita, berhasil menjadi juara 2 pada kategori DAMIN"
Kegiatan,Mahasiswa baru bisa menempuh mata kuliah skripsi bila telah menyelesaikan beban studi kumulatif sekitar berapa puluh prosen?,0.8
Dosen,Siapa dosen yang baru saja mendapat Jabatan Fungsional Penuh,"3 (tiga) dosen Ilmu Komputer yaitu Dr. Intan Norma Yulita, M.Kom., Mira Suryani, S.Pd, M.Kom., Aditya Pradana, S.Si, M.Eng., yang diterima melalui seleksi nasional pada tahun 2015, mendapat Jabatan Fungsional Penuh sehingga memiliki hak dan kewajiban penuh sebagai dosen dalam hal mengajar, menjadi wali, membimbing dan menguji tugas akhir/skripsi."
Kegiatan,Berapakah nilai minimal ujian kualifikasi doktor di FIB?,75
Lain-lain,Jurusan Televisi dan Film ada di fakultas?,Fikom
Dosen,Siapa yang membimbing mahasiswa dalam pembuatan makalah untuk the International Conference on SMART CITY Innovation,"Dr. Intan Nurma Yulita, M.T"
Lain-lain,"Siapakah nama rektor Unpad yang menggagas ""Kota Akademis manglayang""?",Prof. Dr. Hindersah Wiraatmadja
Lain-lain,Kapan Unpad didirikan?,Pada 9 September 1957
Mahasiswa,"Siapa yang mengembangkan ""onion monitoring""","Ferina Dewi Andreina, Dimas Fadli Nugraha, dan Aini Novianty"
Kegiatan,Bahasa apakah yang digunakan dalam penulisan jurnal ilmiah nasional?,Bahasa Indonesia dan bahasa Inggris
Dosen,Siapakah guru besar dari jurusan Sastra Sunda FIB yang pernah bertugas di kementrian pendidikan dan kebudayaan?,"Prof. Dr. Cece Sobarna, M.Hum"
Mahasiswa,Sebagai peneliti mahasiswa harus bisa menjelaskan penelitiannya secara?,eksplisit manfaat yang diperoleh subjek penelitian
Mahasiswa,Siapakah mahasiswa itu?,Peserta didik pada jenjang pendidikan tinggi
Kegiatan,Kapan Seminar nasional informatika 2018 dilaksanakan,pada hari sabtu 29 September 2018
Mahasiswa,Singkatan dari apakah HIFI?,Himpunan Mahasiswa Fisika
Kegiatan,Berapakh skor minimal ELT bagi mahasiswa yang akan mengikuti ujian kualifikasi program doktor di FIB?,500
Kegiatan,Kapan Final Gemastik 11 dilaksanakan,Dilaksakana pada 1-4 November 2018
Mahasiswa,Bila mahasiswa mengalami kesulitan dosen wali akan menyarankan dan merujuk kemana?,Dosen konselor TPBK
Lain-lain,apa itu buku ekonomi kependudukan,sebuah buku yang diluncurkan oleh akademisi FEB hasi penelitian Prof. Sutyastie dan Dr. Ferry
Lain-lain,Kapan Fapet berdiri,27 Juli 1963
Lain-lain,singkatan universitas padjadjaran,UNPAD
Kegiatan,kapan pelantikan rektor,proses pemilihan rektor unpad diperpanjang dan akan terpilih selambat-lambatnya 13 april 2019
Lain-lain,Kapan Faperta berdiri,Pada 1 September 1959
Lain-lain,Departemen apa saja yang ada di FIB,"Departemen Kajian Budaya,Filologi, dan sejarah, Departemen Linguistik, dan Departemen Susastra"
Kegiatan,apa tema seminar nasional informatika 2018,Tech up your knowledge for better security
Kegiatan,Huruf apakah yang digunakan pada awal kutipan langsung?,Huruf Kapital
Dosen,siapa kajur teknik informatika unpad,Kepala jurusan teknik informatika unpad adalah juli rejito
Mahasiswa,Apakah yang digunakan sebagai kriteria untuk memberi peringatan dan sanksi akademik bagi mahasiswa?,IPS dan IPK
Kegiatan,kapan FTIP menggelar lokakarya sertifikasi insinyur profesional,pada hari rabu 24 oktober 2018 di unpad training center bandung
Dosen,siapa yang mendapatkan hibah penulisan buku ajar pt 2018,"Erick paulus, M.kom."
Kegiatan,Apakah sikap Ikatan alumni Unpad pada kegiatan pemilihan presiden dan calon presiden pada Pemilu 2019?,Tidak mendukung salah satu dari dua pasangan kandidat calon presiden atau bersikap netralitas
Kegiatan,Bahasa apakah yang digunakan dalam penulisan jurnal ilmiah internasional?,"Inggris, Perancis, Arab, Rusia dan Cina"
Kegiatan,Jurusan Akutansi mempelajari tentang?,"membuat laporan keuangan, neraca lajur, laporan laba rugi, laporan perubahan modal, dll."
Kegiatan,Kapan Susi Pudjiastuti memberikan kuliah umum di Unpad,"Pada 18 Agustus 2017, Menteri Susi Pudjiastuti memberikan kuliah umum di Unpad"
Kegiatan,Apakah nama kegiatan yang diluncurkan oleh Unpad untuk para mahasiswa agar bisa mandiri berkarier?,PKM (Program Kreativitas Mahasiswa dan Kewirausahaan)
Dosen,Berapa poinkah jika dosen menulis Jurnal Nasional (Ber-ISSN) sebagai penulis utama?,584
Mahasiswa,Apa saja yang termasuk kedalam etik mahasiswa unpad itu?,"Kejujuran, keikhlasan, keteladanan, keadilan, kepeloporan, kejuangan, kesederajatan, keterbukaan, demokratis, profesional, kreatis, bertanggungjawab, taat hukum, cinta lingkungan, dan kemajuan berkelanjutan"
Lain-lain,Fakultas apakah yang pertama kali indah ke Jatinangor pada tahun 1983?,Fakultas Pertanian
Mahasiswa,Tidak berhak mendapat apakah bila masiswa telah mendapat izin penghentian sementara?,Tidak berhak mendapatkan pelayanan akademik
Kegiatan,Ketika presentasi ujian disertasi kandidat doktor harus menggunakan alat?,Power point
Dosen,Berapa poinkah nilai dosen yang mengajar di S1/D4 kelas internasional?,146
Lain-lain,berapa jumlah prodi soshum di unpad,unpad memiliki 22 prodi soshum
Dosen,berapa jumlah dosen yang memiliki sertifikat profesional,sudah ada 6 dosen yang memiliki sertifikat profesional
Lain-lain,Kapan Jurusan Geologi berubah menjadi Fakultas Teknik Geologi,12 Desember 2007
Kegiatan,Jurusan TI mempelajari tentang?,Pemrograman dan komputasi serta rekayasa perangkat lunak atau software untuk berbagai macam bidang aplikasi dan jaringan komputer
Mahasiswa,Siapakah Ketua UKM UKU Unpad yang ditetapkan tanggal 29 Januari 2016?,M Biyan Dilanov
Kegiatan,Apakah nama program yang diluncurkan oleh Unpd untuk mendukung pencapaian kesejahteraan di jawa barat?,Program Aliansi Strategis Unpad (ASUP)
Kegiatan,Bertindak sebagai apakah wakil dekan pada waktu pelaksanaan ujian naskah disertasi?,Sekretaris Sidang
Mahasiswa,prestasi apa yang diraih dalam ajang epicentrum,"dengan menjadi peraih penghargaan terbanya, fikom unpad menjadi Most Epic University dalam epicentrum unpad 2018"
Kegiatan,Berapakah angka kredit maksimal bagi penulisan jurnal internasional bereputasi?,40
Dosen,Berapa poinkah jika dosen membimbing Magang?,16
Kegiatan,Apakah yangharus dilakukan oleh dosen agar naik jabatan kurang dari 3 tahun?,Harus memiliki karya ilmiah yang dipublikasikan pada jurnal nasional terakreditasi Dikti
Dosen,Siapakah yang membantu mahasiswa menyusun rencana studi?,Dosen wali
Kegiatan,Singkatan dari apakah GSSTF,Gelanggang Seni Sastra Teater dan Film
Dosen,Berapa poinkah jika dosen menjadi anggota pembimbing TA S2?,79
Dosen,Berapa poinkah nilai dosen yang mengajar di S2/SP/Profesi Kelas Eksekutif?,146
Mahasiswa,Siapakah mahasiswa Unpad yang lolos seleksi mahasiswa berwirausaha program Gerakan Kewirausahaan Nasional (GKN) 2018 sebagai peringkat terbaik?,Richa Nahdaily
Kegiatan,Apa yang dimaksud dengan kegiatan UTBK?,kegiatan Ujian Tulis Berbasis Komputer
Mahasiswa,Kapankah mahasiswa pendidikan sarjana mendapatkan pemutusan studi ?,"Pada akhir semester IV dan semester VI dengan IPK dibawah 2,00"
Lain-lain,Siapakah ketua Majelis Wali Amanat pada masa rektor Tri Hanggono?,"Rudiantara,MBA"
Dosen,Berapa poinkah jika dosen menguji S2?,54
Dosen,siapa Dr. Lina Meilinawati,Dosen program studi sastra indonesia unpad yang menjadi dosen tamu di Guanxhi University for Nationalituies dan Xiangsihu College di Tiongkok
Lain-lain,berapa jumlah prodi saintek di unpad,unpad memiliki 20 prodi saintek
Kegiatan,Berapakah angka kredit maksimal yang diperoleh seorang dosen jika ia membuat modul?,5
Kegiatan,Sanksi bagi mahasiswa yang melakukan plagiat adalah?,Sanksi khusus yang diatur dalam Peraturan Mentri Pendidikan nasional No. 17 tahun 2010
Kegiatan,UKM yang mempelajari agar mahir berbahasa Inggris di depan umum adalah,ESU (English Speaking Union)
Lain-lain,dimana tempat program studi teknik informatika sekarang,Gedung A PPBS unpad
Lain-lain,Siapakah Warek Bidang Akademik dan Kemahasiswaan pada masa rektor Tri Hanggono?,"Dr. Arry Bainus, M.A."
Mahasiswa,Siapakah yang berhak mendapatkan program fast track?,Mahasiswa yang berprestasi akademik tinggi
Lain-lain,Siapakah alumni Unpad yang menjabat Direktur Utama PT LEN Industr?,Abraham Mose
Kegiatan,Singkatan dari apakah UPBM?,Unit Pecinta Budaya Minangkabau
Kegiatan,kapan IKA Informatika dibentuk,Pada tanggal 17 Desember 2018 telah dibentuk Ikatan Alumni Teknik Informatika Universitas Padjdajaran.
Lain-lain,Singkatan dari apakah PAMASS?,Paguyuban Mahasiswa Sastra Sunda
Mahasiswa,dimana konser PSM 2018 dilaksanakan,konser PSM unpad dilaksanakan di 2 tempat yaitu bandung dan jakarta
Dosen,Siapa yang terpilih menjadi sekretaris eksekutif UNESCAP PBB,Prof. Armida S. Alisjahbana
Lain-lain,"Kategori IPK 2,75-3,00 adalah?",Memuaskan
Lain-lain,Kapan unpad didirikan,Pada 11 September 1957
Mahasiswa,Bisakah WNA menjadi mahasiswa di Unpad?,Bisa sesuai dengan ketentuan peraturan perundang-undangan
Lain-lain,Siapakah yang mengatur teknik penulisan skripsi,Fakultas masing-masing
Dosen,Berapa poinkah jika dosen menjadi anggota pembimbing TA D3?,24
Mahasiswa,Apa yang dimaksud perilaku akademik mahasiswa?,Berbagai aktivitas peserta didik dalam kegiatan intrakurikuler dan kegiatan ekstrakurikuler pada suatu perguruan tinggi
Mahasiswa,siapa m awaldi rahman,wakil ketua bem unpad
Dosen,Berapa poinkah jika dosen menjadi anggota pembimbing TA S1?,40
Kegiatan,Kapan sosialisasi kompetisi CIMB Niaga dilaksanakan,Pada tanggal 1 Oktober 2018
Dosen,Berapa poinkah jika dosen menulis Jurnal Internasional Q4 sebagai penulis utama?,876
Mahasiswa,Siapakah Ketua UKM LPPMD Unpad yang ditetapkan tanggal 29 Januari 2016?,Aldo fernando
Mahasiswa,Siapakah yang menjadi prioritas untuk tinggal asrama Unpad?,Mahasiswa bidik misi dan mahasiswa kedokteran
Dosen,Berapa jumlah orang tim peneliti dalam RKDU?,1-2 orang
Mahasiswa,Siapakah Ketua UKM AIESEC Unpad yang ditetapkan tanggal 29 Januari 2016?,M Zulhanyah I
Kegiatan,Kapankah kegiatan penyusunan tesis bisa dilakukan?,Apabila sekurang-kurangnya telah menyelesaikan seluruh mata kuliah Semester I dan 2 yang dipersyaratkan
Dosen,Siapa Prof. Atip Latipulhayat,Guru besar FH Unpad
Kegiatan,Berapakah angka kredit maksimal yang diperoleh seorang dosen jika ia melaksanakan kegiatan data sering dan pencangkokan di luar institusi tempat bekerja?,"Data sering 5, Pencangkokan 4"
Lain-lain,Apa fasilitas baru unpad?,Bulan Desember 2018 ini Universitas Padjadjaran memasang fasilitas air minum dalam kampus yang dapat dimanfaatkan oleh civitas academica untuk minum atau mengisi botol minumannya.
Dosen,Berapa poinkah jika dosen menjadi ketua pembimbing TA S1?,61
Dosen,siapa kaprodi teknik informatika unpad,Kaprodi Teknik Informatika Unpad adalah Juli Rejito
Kegiatan,Setelah berapa tahunkah seorang dosen bisa naik jabatan dari asisten ahli ke lektor?,Sekurang-kurangnya setelah 2 tahun dari jabatan asisten ahli
Dosen,Berapa poinkah nilai dosen yang mengajar di S2/SP/Profesi?,97
Lain-lain,"Kategori IPK 3,01-3,50 adalah?",Sangat memuaskan
Dosen,Berapa poinkah jika dosen membimbing Kegiatan Kemahasiswaan?,41
Kegiatan,Dalam Aljabar Linier dipelajari tentang?,"Determinan, Ruang Vektor, Ruang Hasil kali dalam, nilai dan vektor eigen, transformasi linier, ruang vektor kompleks"
Kegiatan,Singkatan dari apakah UBBU?,Unit Bola Basket Unpad
Mahasiswa,Berapakah IPK minimal bagi mahasiswa S2 yang akan mengajukan beasiswa prestasi?,"3,25"
Mahasiswa,Siapakah Ketua UKM Shorinji Kempo Unpad yang ditetapkan tanggal 29 Januari 2016?,Radhi Wahyuzi
Lain-lain,berapa banyak peserta SNMPTN 2018 yang diterima unpad,sebanyak 2.304 orang
Dosen,Berapa poinkah nilai dosen yang mengajar di S1/D4?,73
Dosen,Berapa poinkah jika dosen menulis Jurnal Nasional terakreditasi sebagai penulis pendamping?,487
Kegiatan,Berapa halamankah minmal batas buku referensi yang dibuat oleh seorang dosen?,Paling sedikit 40 halaman
Kegiatan,Jurusan Psikologi mengajarkan tentang?,perilaku serta kegiatan manusia
Kegiatan,Spektrum adalah unit kegiatan di bidang?,Fotografi
Mahasiswa,Bisakah mahasiswa alih prodi?,Bisa selama daya tampung pada prodi yang dituju masih memungkinkan
Kegiatan,Kegiatan bagi mahasiswa yang berjiwa kritis dan humanis adalah,Lembaga Pengkajian dan Pengabdian Masyarakat Demokratis (LPPMD)
Dosen,siapa yang mendapatkan hibah spada 2018,"Mira Suryani S.Pd., M.Kom"
Mahasiswa,Apakah mahasiswa penerima beasiswa akan dicek kelayakannya?,Ya
Kegiatan,Singkatan dari apakah UHU?,Unit Hockey Unpad
Kegiatan,Kapan ujian skripsi dilaksanakan?,pada akhir studi yaitu pada Sidang Ujian Sarjana
Mahasiswa,Siapakah Ketua UKM UBTU Unpad yang ditetapkan tanggal 29 Januari 2016?,Danny Harja Y
Dosen,Siapakah Rektor Unpad yang pernah menjabat sebagai Atase Pendidikan dan Kebudayaan di Paris,Ganjar Kurnia
Lain-lain,Program Doktor S-3 yang ada di FK Unpad adalah?,Ilmu Kedokteran
Kegiatan,Bagaimanakah bila dosen selama 12 bulan secara terus menerus tidak dapat melaksanakan tugasnya?,Akan diberhentikan dari jabatan akademiknya
Kegiatan,Singkatan dari apakah UBVU?,Unit Bola Volley Unpad
Dosen,Siapa dosen yang mendapat beasiswa google,"Erick Paulus, M.Kom., medapatkan beasiswa dan pelatihan menjadi Android Developer Expert dari Google setelah melalui kompetisi dan seleksi yang diadakan oleh DICODING"
Lain-lain,Warna hitam pada logo Unpad melambangkan,"keteguhan, kekuatan dan ketabahan hati"
Lain-lain,berapa banyak peserta SBMPTN 2018 yang diterima unpad,sebanyak 4.161 orang
Lain-lain,berapa jumlah fakultas S1 di Unpad,16 fakultas
Kegiatan,Jurusan Manajemen mempelajari tentang?,"pemasaran, keuangan, SDM, bisnis, dll."
Dosen,Siapakah guru besar dari jurusan sejarah FIB?,"Prof. dr. Hj. Nina Herlina Lubis, Dra, M.S."
Dosen,siapa prof. soeganda priyatna,"guru besar fikom unpad yang meluncurkan buku biografi ""Empat lini pengabdian: buruh, politik, pendidikan, manajer profesional"""
Kegiatan,Bila seorang dosen membuat buku ajar maka ia memperoleh angka kredit maksimal berapa?,20
Mahasiswa,siapa Imam Syahid,Ketua BEM Unpad
Dosen,Apakah syarat ijazah untuk dosen program diploma dan sarjana?,Ijazah Magister (S2)
Mahasiswa,Siapakah Ketua UKM GSSTF Unpad yang ditetapkan tanggal 29 Januari 2016?,Chindy Ayu A
Dosen,Apakah yang menjadi kewajiban seorang profesor?,Menulis buku dan karya ilmiah serta menyebarluaskan gagasannya untuk mencerdaskan masyarakat
Lain-lain,Apa arti roda dalam logo Unpad,kemasyarakatan yang seperti halnya dengan roda senantiasa bergerak dan berputar dalam proses perubahandan yang menjadi corak Unpad
Mahasiswa,Mahasiswa yang bermasalah baik dalam bidang akademik maupun non akademik berhak mendapat layanan?,Bimbingan dan Konseling
Dosen,Standar beban minimal tugas dan fungsi dosen adalah berapa sks?,16 sks
Mahasiswa,Siapakah ketua BEM Kema Unpad pada masa rektor tri hanggono?,Izmu Tamimi Roza
Dosen,Siapakah yang memantau kemajuan studi mahasiswa?,Dosen wali
Mahasiswa,Kapankah mahasiswa mengajukan cuti akademik?,Paling lambat tiga minggu sebelum berlangsungnya herregistrasi semester berikutnya.
Dosen,Berapakah jumlah dosen tetap Unpad sampai periode 2017/2018?,1.907 orang
Kegiatan,Berapa lamakah kandidat doktor mempresentasikan disertasinya?,Maksimal 10 menit
Dosen,"siapa erick Paulus, M.Kom.",Dosen program studi teknik informatika yang mendapatkan beasiswa google dan mengikuti summer school di paris
Mahasiswa,siapa Eqi Buana,Wisudawan sarjana unpad yang lulus s2 di jepang
Mahasiswa,Siapakah Ketua UKM PSM Unpad yang ditetapkan tanggal 29 Januari 2016?,Najma Nabila Savitri
Kegiatan,Apa saja Jenis lomba pada kompetisi cimb niaga,"ada tiga yaitu, fintech, science dan coding"
Lain-lain,warna jaket almamater Unpad adalah,biru dongker
Dosen,Berapa poinkah jika dosen menulis Jurnal Nasional terakreditasi sebagai penulis utama?,730
Lain-lain,Siapakah rektor Unpad sebelum Prof. RS Soeria Atmadja?,Moh. Sanusi Hardjadinata
Dosen,Siapakah ketua ASUP Jabar?,"Prof. Dr. Reiza D. Dienaputra, M.Hum"
Mahasiswa,Siapakah Ketua UKM SAR Unpad yang ditetapkan tanggal 29 Januari 2016?,Bahrul Alam
Lain-lain,Dimana Unpad berada,Jawa Barat
Lain-lain,Kapan sebutan presiden universitas berubah menjadi rektor?,tahun 1963
Lain-lain,Kapan Fakultas Psikologi berdiri,22525
Lain-lain,Warna Kuning pada logo Unpad melambangkan,Kejayaan dan keluhuran budi
Lain-lain,Siapakah pencipta Himne Unpad?,Iwan R.A Rachman
Lain-lain,Wisuda Unpad biasanya diselenggarakan di gedung apa?,Graha Sanusi Hardjadinata
Dosen,Berapa poinkah jika dosen membuat Buku Referensi Nasional (Penulis Pendamping)?,438
Lain-lain,Himpunan Mahasiswa Sastra Indonesia bernama?,Gelanggang
Mahasiswa,Siapakah Ketua UKM UBBU Unpad yang ditetapkan tanggal 29 Januari 2016?,Muhammad Alta Amrulloh
Dosen,"Dosen dengan golongan ruang IV/a, IV/b, dan IV/c menjabat sebagai apa?",Lektor Kepala
Lain-lain,KApan Unpad membuka Fakultas Pascasarjana,30201
Kegiatan,Disebut apakah hasil pengutipan karya ilmiah?,Kutipan
Mahasiswa,Ada berapa makalah yang diterima pada the International Conference on SMART CITY Innovation,ada 9 makalah
Kegiatan,Berapakah angka kredit maksimal bagi dosen yang menterjemahkan atau menyadur buku ilmiah?,15
Dosen,siapa yang menjadi dosen tamu di Guanxi Univeristy for Nationalities dan Xiangsihu College di tiongkok,"Dr. Lina Meilinawati, dosen program studi sastra indonesia unpad"
Dosen,Berapa poinkah jika dosen membuat Prosiding Nasional (Penulis Pendamping)?,438
Kegiatan,Berapakah angka kredit maksimal yang diperoleh dosen jika ia membuat model alat peraga?,5
Mahasiswa,"Siapakah mahasiswa Unpad yang dinobatkan sebagai 'Mbak Kebumen"" dalam acara ""Mas Mbak Duta Wisata Kabupaten Kebumen 2018""?",Indah Kurniasih
Mahasiswa,Siapakah mahasiswa beprestasi 2016 dari Fakultas Pertanian?,Dheanara Pinka
Mahasiswa,Kepada siapakah surat permohonan beasiswa diajukan?,Pimpinan Program Studi
Lain-lain,Singkatan dari apakah CISRAL?,Center Of Information Scientific Resource
Kegiatan,Bertindak sebagai apakah dekan pada waktu pelaksanaan ujian naskah disertasi?,Ketua sidang
Dosen,Peraturan Rektor no berapakah yang memuat tentang dosen?,N0. 46 Tahun 2014
Lain-lain,apa saja jurusan di Pascasarjana S2 FIB?,"Ilmu sastra, Kajian Budaya, Ilmu Liguistik, dan Sejarah"
Mahasiswa,Berapa skor nilai minimal bagi mahasiswa program doktor yang dinyatakan lulus?,"3,00"
Kegiatan,Ketika kuliah mahasiswa wajib mengisi?,Daftar hadir mahasiswa dan dosen (DHMD)
Dosen,Berapa poinkah jika dosen membuat Artikel Internasional (Penulis Pendamping)?,44
Kegiatan,Prasyarat penyusunan skripsi yang utama adalah?,Telah menyelesaikan semua mata kuliah
Kegiatan,Kapan Academic Leadership Camp dilaksanakan,"Pada tanggal 23 Oktober 2018, Rektor Universitas Padjadjaran Prof. Tri Hanggono Achmad menyelenggarakan Academic Leadership Camp di area kampus Unpad di Arjasari."
Lain-lain,Apa arti bunga teratai pada logo Unpad,Jaya Abadi Suci sepanjang masa
Lain-lain,Kapankah IPK dihitung?,Setiap akhir semester
Kegiatan,Berapakah ukuran spasi yang digunakan ketika menulis kutipan langsung?,Satu spasi
Kegiatan,Kegiatan mahasiswa Sastra Sunda yang fokus pada teater tergabung dalam?,Tepass Teater Paguyuban Sastra Sunda
Dosen,siapa tri hanggono,Bapak Tri Hanggono adalah rektor Unpad saat ini
Dosen,"siapa Prof. Dr. med Tri Hanggono Achmad, dr",Bapak Tri Hanggono adalah rektor Unpad saat ini
Mahasiswa,Siapakah Ketua UKM Taekwondo Unpad yang ditetapkan tanggal 29 Januari 2016?,Dicky Nugraha
Dosen,Siapakah Rektor Unpad yang pertama?,Prof. Iwa Koesoemasoemantri
Dosen,Jabatan Profesor berada pada grade berapa?,12
Mahasiswa,Dari siapakah mahasiswa mendapat surat IPSUS?,Rektor
Mahasiswa,Siapakah Ketua UKM UBVU Unpad yang ditetapkan tanggal 29 Januari 2016?,Sauma Ramadhani
Lain-lain,Gubernur BI yang merupakan alumni Unpad adalah,Burhanudin Abdullah
Dosen,Jabatan akademik dosen yang paling rendah adalah?,Asisten ahli
Kegiatan,Penelitian mahasiswa harus dilakukan secara?,"Jujur, profesional, berperikemanusiaan serta memperhatikan faktor ketepatan, keseksamaan, dan kecermatan"
Mahasiswa,Siapa yang mendapat juara pada lomba UX gemastik 11,"Tim ""Rock Bottom"" Universitas Padjadjaran, Patricia Joanne, Muhammad Raihan Akbar, dan Muhammad Rifqy Aulia Akbar, serta dosen pembimbing Mira Suryani, S.Pd., M.Kom., meraih juara 2 pada GEMASTIK 11"
Mahasiswa,Apa yang dimaksud dengan hak mahasiswa dalam memperoleh kebebasan akademik?,"Kebebasan untuk menuntut dan mengkaji ilmu pengetahuan sesuai dengan norma keilmuan, norma kesusilaan, dan norma etik yang berlaku."
Dosen,Standar beban minimal tugas dan fungsi dosen adalah berapa sks?,12 sks
Mahasiswa,Siapakah wakil ketua BEM Kema Unpad pada masa rektor tri hanggono?,Rinaldi Muhammad Azka
Kegiatan,Berapakah jumlah minimal halaman penulisan disertasi?,250 halaman
Lain-lain,Di Fakultas apakah program profesi Ners?,FIK
Kegiatan,apa itu CBS,CBS (Character Building Season) adalah masa orientasi mahasiswa Teknik Informatika Unpad
Lain-lain,Program diploma yang ada di FK Unpad adalah?,D-IV Kebidanan
Kegiatan,siapa yang melaksanakan seminar internasional ICLOS Conference 2018,Pusat hukum laut indonesia atau the indonesian center for law of the sea (iclos) fakultas hukum universitas padjadjaran
Mahasiswa,Apakah mahasiswa yang cuti beasiswanya akan dihentikan?,ya
Mahasiswa,Siapakah mahasiswa Fikom Unpad yang meraih juara II Communication Campaign di USM Malaysia pada 17-19 desember 2018?,Karina Alysia T dan Hasinah Azzahra
Dosen,Berapa poinkah jika dosen menjadi ketua pembimbing TA S3?,183
Kegiatan,Perkuliahan Program Diploma FMIPA berpusat di mana?,Jl Ir. H Juanda no. 4
Mahasiswa,Siapakah Ketua UKM UTU Unpad yang ditetapkan tanggal 29 Januari 2016?,M Aji Ghaffar W
Dosen,siapa Mira Suryani,Dosen program studi teknik informatika yang mengikuti summer school di paris
Mahasiswa,Siapakah Ketua UKM PMPA Palawa Unpad yang ditetapkan tanggal 29 Januari 2016?,Nida Choirun Nufus
Kegiatan,Berapakah skor minimal ELT bagi mahasiswa FIB yang akan mengadakan Seminar Usulan Penelitian?,450
Lain-lain,Apakah nama gedung Perpustakaan Unpad,Graha Soeria Atmadja
Mahasiswa,Berapa prosenkah pada tahun 2019 kuota SNMPTN?,0.4
Dosen,Berapa poinkah nilai dosen yang mengajar di S3 Kelas Eksekutif?,292
Dosen,Syarat dosen yang mengusulkan RKDU harus berpendidikan jenjang?,S3
Lain-lain,berapa banyak mahasiswa asing yang akan belajar di unpad,sebanyak 129 mahasiswa asing akan belajar di unpad pada tahun akademik 2018/2019
Mahasiswa,Siapakah Ketua UKM UCMU Unpad yang ditetapkan tanggal 29 Januari 2016?,Irvan Yustian
Lain-lain,FISIP berdiri pada tahun,1958
Kegiatan,Apa fokus kegiatan SAR Unpad?,Penyelamatan jiwa manusia jika terjadi suatu musibah atau kecelakaan di suatu tempat
Dosen,Berapa poinkah jika dosen membuat Prosiding nasional (Penulis Utama)?,657
Lain-lain,Apakah gelar sarjana lulusan dari FISIP?,S.IP
Lain-lain,"Kategori IPK 3,51-4,00 adalah?",Pujian
Dosen,Siapakah yang memberi pertimbangan dalam menentukan beban studi mahasiswa?,Dosen wali
Mahasiswa,Bentuk sanksi ringan yang diberikan kepada mahasiswa yang melanggar berupa?,Teguran lisan dan peringatan ringan secara tertulis
Mahasiswa,Siapa yang mendapatkan juara 2 kompetisi arkavidia,"Risal Falah, Rifki Muhammad dan Asep Nur Muhammad"
Lain-lain,berapa luas UNPAD,"Berdasarkan Surat Keputusan Gubernur Jawa Barat No. 593/3590/1987, kawasan itu meliputi luas 3.285,5 Hektar, terbagi dalam 7 wilayah peruntukkan. Khusus untuk Unpad, wilayah pengembangan kampus di Jatinangor mencakup 175 h."
Kegiatan,Siapa yang melakukan pengabdian pada masyarakat kepada SMK Ba'abul Kamil,para dosen Ilmu komputer FMIPA Unpad
Kegiatan,Berapakah jumlah minimal halaman penulisan makalah?,10 halaman
Mahasiswa,Siapa wakil ketua bem unpad,M awaldi rahman
Mahasiswa,Bolehkah mahasiswa yang menikah mengajukan beasiswa?,Tidak boleh
Mahasiswa,Siapa Ketua BEM Unpad sekarang?,Ketua BEM Unpad saat ini adalah Imam Syahid
Kegiatan,UTMU adalah,Unit Tenis Meja Unpad
Kegiatan,Berapakah jumlah minimal halaman penulisan praktik kerja?,40 halaman
Mahasiswa,Mahasiswa dinyatakan lulus jika tidak terdapat huruf mutu?,E
Mahasiswa,Apa yang terjadi jika mahasiswa tidak melaksanakan pendaftaran administratif?,Tidak akan mendapat layanan akademik
Mahasiswa,apa prestasi mahasiswa teknologi pangan di india,"Mahasiswa prodi teknologi pangan FTIP mendapat juara 3 dalam kompetisi ""IUFoST"" 23-27 Oktober lalu di mumbai"
Lain-lain,apa saja fasilitas kesehatan yang ada di Unpad?,Stadion Jati Padjadjaran dan Bale Santika
Mahasiswa,Berapa beban SKS normal untuk mahasiswa tiap semester adalah?,18 SKS
Mahasiswa,Siapakah nama mahasiswa yang menyandang gelar The Best Student The Month September 2018?,Hayatul Fikri Aziz
Dosen,"siapa Prof. Dr. Sudradjat, MS","Prof. Dr. Sudradjat, MS adalah Dekan FMIPA Unpad"
Lain-lain,Kapan FIK berdiri,Pada 8 Juni 2005
Kegiatan,UKM yang mempelajari Teknik pernafasan dan Tenaga Dalam di Unpad adalah,Merpati Putih
Kegiatan,Kapankah ketua program studi mewajibkan para mahasiswa untuk menyerahkan judul tentatif rencana penelitian tesis?,Paling lambat dua bulan menjelang berakhirnya semester pertama
Kegiatan,Kapan pengabdian pada masyarakat kepada SMK Ba'abul Kamil dilaksanakan,2 November 2018 - 30 Nov 2018
Dosen,Apakah wewenang dan tnggung jawab seorang dosen?,Mengajar program studi dan bimbingan tugas akhir
Kegiatan,Penulisan kegiatan tugas akhir bagi mahasiswa program S2 adalah berupa?,Tesis
Mahasiswa,Apa Prestasi Mahasiswa Teknik Informatika dalam Kompetisi Codig,Tim Mahasiswa teknik informatika berhasil menjadi juara 2 dalam kompetisi codig
Mahasiswa,Dikeluarkan oleh siapakah sanksi DO bagi mahasiswa yang melakukan pelanggaran berat?,Rektor
Mahasiswa,Tidak boleh melebihi berapa prosenkah jumlah huruf mutu D yang diperoleh mahasiswa?,0.2
Dosen,Siapa yang menjadi pembicara di Fasilkom UI,"Pada Kamis, 11 Oktober 2018, Mira Suryani, S.Pd., M.Kom, diundang oleh Digital Library & Distance Learning Laboratory Fakultas Ilmu Komputer, Universitas Indonesia sebagai pembicara pada sesi Brown Bag Session #3."
Mahasiswa,Berapa lama mahasiswa mendapat izin penghentian studi sementara?,Dua semester baik berturut-turut maupun terpisah
Kegiatan,Penulisan kegiatan tugas akhir bagi mahasiswa program S3 adalah berupa?,Disertasi
Lain-lain,Sebutkan 10 jurusan yang menjanjikan masa depan paling cerah di Unpad?,"TI,Kedokteran, Kedokteran Gigi, Farmasi,Statistika, HI, Manajemen,Akutansi, Hukum,Psikologi"
Mahasiswa,Siapa yang mendapatkan juara pada Merck young scientisr award 2018,"Jelang muhammad dirgantara, FMIPA 2015"
Kegiatan,Hal apakah yang harus ditulis dan dijelaskan dalam Bab Objek Penelitian?,"Sejarah objek penelitian, struktur organisasi dan kegiatan objek penelitian"
Kegiatan,Ada berapa tim yang mengikuti CIMB 3d Conquest,5 tim mahasiswa program studi Informatika telah berhasil lolos dan maju ke final kompetisi nasional CIMB 3D Cinquest
Kegiatan,Siapakah yang menetapkan dan melantik rektor?,MWA
Dosen,Instansi manakah yang berfungsi sebagai pembina jabatan akademik dosen?,Kementrian Pendidikan dan Kebudayaan
Lain-lain,Siapakah wakil presiden RI yang merupakan alumni Unpad,Umar Wirahadikusuma
Lain-lain,Peringkat unpad dalam UI greenmetrics 2018,unpad menjadi peringkat ke 9 dari 66 universitas
Kegiatan,Jurusan HI mempelajari tentang?,"Kebijakan internasional, teori hubungan internasional, isu global, perdamaian internasional, organisasi internasional, dll."
Dosen,Siapa pembicara seminar IoT and It's Application,"Dr.Asep Sholahuddin, M.T., Arri Marsenaldi dan Budi Hartono"
Mahasiswa,Siapa yang mendapat juara pada lomba Software engineering gemastik 11,"Tim ""Padjadjaran VR"" Universitas Padjadjaran, Naufal Nurfikri Alwan (FMIPA), Ikhwanul Murtadlo Nuruzzaman (FMIPA), dan Farah Riski Deskia (FKEP), serta dosen pembimbing Erik Paulus S.Si., M.Kom., Mira Suryani, S.Pd., M.Kom., dan Ryana Hara Permana S.Kep., Ners., MN., meraih juara 2 pada GEMASTIK 11"
Dosen,siapa yang menerima penghargaan habibie award,"Prof. Rovina Ruslami, PhD"
Dosen,Aspek-aspek apa saja yang harus dimiliki oleh seorang dosen?,"Berpikir kritit, kreatif, kominikasi, dan kolaborasi"
Lain-lain,universitas apa yang bekerja sama dengan Unpad,universitas bangka belitung terkait penguatan tridarma perguruan tinggi
Mahasiswa,Apakah nama organisasi kemahasiswaan yang memfasilitasi kreatifitas dan minat bakat mahasiswa?,Keluarga Mahasiswa Universitas Padjadjaran (Kema Unpad)
Lain-lain,dimana tempat departemen ilmu komputer sekarang,Gedung A PPBS unpad
Lain-lain,Jurusan Bisnis DIgital ada di fakultas?,FEB
Dosen,Bagaimanakah peran dosen bagi mahasiswa?,Berperan dalam mengubah pola pikir mahasiswa dalam menyiapkan SDM yang berkompeten
Mahasiswa,Siapakah Ketua UKM Lises Unpad yang ditetapkan tanggal 29 Januari 2016?,Widi Nugraha
Lain-lain,dimana letak bank mini?,Bank mini yang dibangun oleh Bank Syariah Mandiri berada di FEB Unpad
Dosen,siapa setiawan hadi,beliau adalah kepala departemen ilmu komputer
Kegiatan,Berapakah skor minimal ELT bagi mahasiswa FIB yang akan mengadakan Seminar Usulan Penelitian?,525
Dosen,Siapa yang membuat aplikasi mobile assisted testing CBT SBMPTN 2018,"Dr. Juli Rejito, M.Kom."
Dosen,Siapa Rektor Unpad saat ini?,Bapak Tri Hanggono adalah rektor Unpad saat ini dan belum ada rektor terpilih untuk periode 2019-2023
Dosen,Siapa yang menjadi moderator pada seminar IoT and it's Application,"Mira Suryani S.Pd., M.Kom"
Kegiatan,"Pada akhir studi program sarjana , mahasiswa wajib membuat?",Skripsi
Lain-lain,apa itu Expadtriats,"Expanding unpad through International insight, art and science. Sebuah acara unpad yang menyajikan kuliner khas dan pertunjukan kebudayaan pada international day"
Dosen,Berapa poinkah jika dosen menulis Jurnal Internasional Q2 sebagai penulis pendamping?,876
Mahasiswa,Berapakah IPK minimal bagi mahasiswa S1 yang akan mengajukan beasiswa prestasi?,3
Kegiatan,Apa nama kegiatan penerimaan mahasiswa baru Unpad?,PRABU
Kegiatan,Matrikulasi dan ujian kualifikasi termasuk kedalam kegitan?,Kegiatan kurikuler non-SKS
Lain-lain,Warna putih pada logo Unpad melambangkan,kejujuran dan kesucian
Kegiatan,Siapa yang berpartisipasi pada Academic Leadership Camp,Para dosen UNPAD
Lain-lain,siapa yang menjadi most epic university,Fikom Unpad menjadi Most Epic University dalam acara Epicentrum Unpad 2018
Lain-lain,Unpad berubah status menjadi PTN BH pada masa presiden?,Susilo Bambang Yudhoyono
Kegiatan,Apakah yang dicantumkan dalam lampiran,"Angket pedoman wawancara, foto, peta lokasi, dan sumber data"
Mahasiswa,apa prestasi SPDC di ajang Indonesia drum corsp championship,"dengan penampilan berjudul titik balik, spdc unpad mendapatkan juara 3 pada lomba sound sport dan juara 5 pada drum corps"
Dosen,Siapa Prof. Armida S. Alisjahbana,Guru besar FEB Unpad yang dipilih menjadi sekretari eksekutif unescap pbb
Mahasiswa,Apakah Ormawa itu?,Organisasi kemahasiswaan yang merupakan salah satu komponen penting dalam Perguruan Tinggi Negeri badan Hukum
Lain-lain,Warna berdera Fakultas Hukum adalah,Merah
Lain-lain,apa saja fasilitas kesehatan yang ada di Unpad?,"klinik Padjadjaran, Balai Kesehatan, Pusat Kebugaran dan Kecantikan Fitnes Ideal"
Lain-lain,Siapakah perintis Fapet Unpad?,Prof. Dr. Didi Atmadilaga
Kegiatan,ospek jurusan teknik informatika namanya apa?,CBS atau Character Building Season
Mahasiswa,Siapakah Ketua UKM MP Unpad yang ditetapkan tanggal 29 Januari 2016?,Ahmad Hadi Fauzi
Mahasiswa,Siapakah mahasiswa Fikom yang meraih juara pertama dalam cabang lomba News and Infografis Competition (Neon) di Unbraw?,"Nurul Amanah, Elza Triani, Mohammad Fariansyah, dan Muhammad Imaduddin"
Dosen,Golongan ruang berapakah biasanya profesor itu?,Golongan ruang IV/d dan IV/e
Kegiatan,Harus terindeks oleh siapakah jurnal ilmiah internasional?,Data Base Scopus dan Web of Science
Kegiatan,Berapakah jumlah minimal halaman penulisan skripsi?,60 halaman
Lain-lain,siapakah rektor yang menjabat dari tahun 1990-1998,Prof. Dr. H. Maman P Rukmana
Lain-lain,Kapan FTIP berdiri,pada 13 September 2005
Lain-lain,Siapakah alumni Unpad yang pernah menjabat sebagai menteri Agraria dan Tata Ruang di Kabinet Kerja 2014-2019,Ferry Mursyidan Baldan
Dosen,Siapakah yang harus dilibatkan oleh mahasiswa ketika melakukan penelitian?,Dosen
Dosen,siapa kepala prodi teknik informatika,Juli Rejito
Mahasiswa,Siapakah Ketua UKM UTMU Unpad yang ditetapkan tanggal 29 Januari 2016?,Abang satria Purba Saputra
Lain-lain,kapan Teknik Infromatika didirikan,pada tahun 2012
Dosen,Apakah unsur utama yang dinilai dalam pemberian angka kredit dosen?,"Pendidikan sekolah, pelaksanaan pendidikan, pelaksanaan penelitian, dan pelaksanaan pengabdian kepada masyarakat"
Mahasiswa,Siapakah Ketua UKM UHU Unpad yang ditetapkan tanggal 29 Januari 2016?,Gian Prya
Mahasiswa,siapa yang mengembangkan olahan hanjeli menjadi brownies kukus,"Tiga mahasiswa FTIP yaitu Dea Annisa Annas, Nia Azziza Muzaki dan Petrus Siahaan"
Lain-lain,Siapakah Wakil Ketua Komisi I DPR periode 2009-2014 alumni dari Unpad?,Agus Gumiwang Kartasasmita
Lain-lain,Jurusan Jurnalistik ada di fakultas?,Fikom
Mahasiswa,Siapakah mahasiswa Jurnalistik Fikom Unpad yang meraih juara III Feature Writing di USM Malaysia?,Moch. Rizqi Hijriah
Lain-lain,"PAda saat Unpad berdiri, terdapat 4 fakultas yaitu","Hukum, Ekonomi, Keguruan dan Ilmu Pendidikan serta Kedokteran"
Lain-lain,"siapa yang memberikan kuliah umum bertema ""jelajah negeri bangun anti korupsi""","wakil ketua kpk, saut situmorang"
Dosen,Berapa poinkah nilai dosen yang mengajar di D3,49
Mahasiswa,siapa rais,ketua BE himatif saat ini
Mahasiswa,"siapa yang mendapatkan juara 3 pada kompetisi ""IUFoST""","3 Mahasiswa prodi teknologi pangan FTIP. Isfari dinika, timothy darmanto wijaya, florensia irena, fasya utba dan Dalih dwi hadiyan"
Lain-lain,Program profesi yang ada di FK Unpad adalah?,Pendidikan Dokter
Lain-lain,Kapan Fakultas Psikologi berdiri,21490
Mahasiswa,siapa ketua himpunan himatif sekarang,Rais
Mahasiswa,Siapakah Ketua UKM URU Unpad yang ditetapkan tanggal 29 Januari 2016?,Luthfi Rahman
Lain-lain,apa itu iclos,the indonesian center for the law of the sea
Dosen,siapa kepala prodi departemen ilmu komputer,setiawan hadi
Lain-lain,Siapakah alumni Unpad yang pernah menjabat sebagai menteri Agraria dan Tata Ruang di Kabinet Kerja 2014-2019,Rudiyantara
Kegiatan,Berapa lamakah pengalaman mengajar yang diperlukan agar naik jabatan dari lektor kepala ke guru besar?,Minimal 10 tahun
Dosen,Berapa poinkah jika dosen menulis Jurnal Internasional Q2 sebagai penulis utama?,1314
Kegiatan,Kepada siapakah rektor bertanggungjawab dalam melaksanakan tugasnya?,MWA
Dosen,Berapa poinkah jika dosen membimbing akademik dosen dibawah jenjang jabatan?,16
Dosen,Berapa poinkah jika dosen menguji D3?,8
Dosen,Berapa poinkah jika dosen menulis Jurnal Nasional (Ber-ISSN) sebagai penulis pendamping?,389
Kegiatan,Berapa prosenkah persyaratan mahasiswa harus hadir pada kegiatan praktikum laboratorik?,0.8
Dosen,Berapa poinkah angka kewajaran kinerja dosen persemester di luar BKD?,5000 poin
Lain-lain,Apakah gelar sarjana lulusan dari FIB,S.Hum
Dosen,siapa kepala departemen ilmu komputer unpad,kepala departemen ilmu komputer unpad adalah setiawan hadi
Mahasiswa,Dikeluarkan oleh siapakah sanksi bagi mahasiswa yang tidak boleh mengikuti kuliah dan ujian untuk beberapa mata kuliah atau seluruhnya/,Dekan
Kegiatan,Berapakah kisaran jumlah kata yang ada dalam abstrak?,200-500 kata
Kegiatan,Vektor dan geometri analitik ruang dipelajari dalam mata kuliah?,Kalkulus
Dosen,Berapa prosenkanh Unpad mencanangkan dosen S3 dalam rangka mengejar standar kinerja PT Kelas dunia?,0.4
Mahasiswa,Siapakah Ketua UKM ESU Unpad yang ditetapkan tanggal 29 Januari 2016?,Risanto Mulyo
Lain-lain,Sejak tahun 2001 FK Unpad menerapkan metode?,Problem Based Laerning (PBL)
Lain-lain,Program sarjana yang ada di FK Unpad adalah?,Kedokteran dan Kedokteran Hewan
Mahasiswa,Siapakah Ketua UKM Baseball dan Softball Unpad yang ditetapkan tanggal 29 Januari 2016?,M Raditya Pradana
Lain-lain,kepanjangan UNPAD,Universitas Padjadjaran
Dosen,Siapakah nama dekan FIB periode rektor Tri hanggono?,"Yuyu Yohana Risagarniwa, M.Ed, Ph. D"
Kegiatan,Indexing dan Basis Data Client-Server dipelajari dalam mata kuliah?,Sistem Data base
Lain-lain,Singkatan dari apakah PPUN?,Panitia Pembentukan Universitas Negeri
Lain-lain,Kapan gedung rektor Unpad resmi pindah ke Jatinangor,5 Januari 2012
Mahasiswa,Siapakah Ketua UKM Menwa Yon II Unpad yang ditetapkan tanggal 29 Januari 2016?,Zulfikri Aliansyah R
Kegiatan,Kapan pelatihan train the trainer huawei HCAI-HCNA-R&S dilaksankan,pada tanggal 8-12 oktober 2018
Kegiatan,Kapan Huawei smartgen dilaksanakan?,Huawei Smartgen dilaksanakan pada 9 Oktober 2018
Kegiatan,kapan kunjungan fakultas ilmu komputer dan teknologi informasi USU,Pada tanggal 13 juli 2018
Lain-lain,Berapa banyak jurusan yang ada di Unpad sampai tahun 2019?,50 jurusan
Dosen,Apakah kedudukan jabatan seorang dosen?,"Sebagai pelaksana teknis fungsional di bidang pendidikan, penelitian, dan pengabdian kepada masyarakat"
Dosen,Berapa poinkah jika dosen menulis Jurnal Internasional Q1sebagai penulis pendamping?,1460
Mahasiswa,siapa yang berpartisipasi pada 3rd International Conference on Science in Information Technology 2017,7 orang mahasiswa TI yang tergabung dalam 2 tim
Mahasiswa,Siapakah Ketua UKM SPDC Unpad yang ditetapkan tanggal 29 Januari 2016?,Shinta Falah sari
Kegiatan,Berapakah angka kredit maksimal yang diperoleh seorang dosen jika ia melaksanakan orasi ilmiah?,5
Mahasiswa,Siapakah Ketua UKM UPBM Unpad yang ditetapkan tanggal 29 Januari 2016?,Muhammad Zakly
Dosen,Berapa poinkah jika dosen menulis Jurnal Internasional Q3 sebagai penulis utama?,730
Mahasiswa,Apa yang dimaksud dengan hak mahasiswa dalam kebebasan mimbar?,Hak mahasiswa dalam menyatakan pikiran dan pendapatnya dalam forum akademik
Lain-lain,dimana gedung teknik informatika,saat ini teknik informatika berada di Gedung PPBS A
Kegiatan,Kapan berdirinya unit bulu tangkis Unpad?,19 Desember 1986
Lain-lain,Sebutkan enam unsur yang ada pada logo Unpad,"obor, kujang, sayap, rodan. bunga teratai dan pentagon"
Kegiatan,Bahasa yang bagaimanakah yang digunakan ketika mahasiswa melakukan penelitian?,Bahasa yang ilmiah
Mahasiswa,Siapakah tiga mahasiswa Unpad yang terpilih sebagai mahasiswa berprestasi tahun 2018?,"Fachreza Aryo Damara, Jhoice Noor Syahid, dan Harlino Nadha Prayudha"
Lain-lain,Sebutkan nama mata kuliah di FIB yang membahas tentang tulisan naskah-naskah kuna adalah?,Filologi
Kegiatan,Siapakah yang menetapkan dosen pembimbing skripsi?,Dekan melalui SKnya.
Kegiatan,Berapakah angka kredit maksimal yang diperoleh seorang dosen jika ia membuat diktat?,5
Kegiatan,Diaman Final Gemmastik 11 dilaksakan,ITS Surabaya
Dosen,Berapa poinkah jika dosen menjadi Dosen wali?,2
Lain-lain,Alumni Unpad tergabung dalam wadah yang bernama?,IKA UNPAD
Lain-lain,Mencakup berapa hektarkah wilayah pengembangan kampus Unpad di jatinangor?,175 h
Kegiatan,Singkatan dari apakah LISES,Lingkung Seni Sunda
Kegiatan,Sebutkan dua jenis kutipan dalam penulisan karya ilmiah?,Kutipan langsung dan kutipan tidak langsung
Dosen,Berapa poinkah jika dosen membuat Prosiding Internasional Terindeks Scopus (Penulis Pendamping)?,876
Dosen,siapa yang terpilih mengikuti summer school di perancis,"Erick Paulus, M.Kom., dan Mira Suryani, M.Kom"
Lain-lain,Kapan FPIK berdiri,7 Juli 2005
Lain-lain,Warna berdera Fakultas Hukum adalah,Ungu
Dosen,Siapakah yang harus mengisi Berkas Informasi Mahasiswa(BIM)?,Dosen Wali
